{
  "project_info": {
    "project_number": "688498351605",
    "firebase_url": "https://flutter-push-98529.firebaseio.com",
    "project_id": "flutter-push-98529",
    "storage_bucket": "flutter-push-98529.appspot.com"
  },
  "client": [
    {
      "client_info": {
        "mobilesdk_app_id": "1:688498351605:android:129eec42ce5052ae9e54bc",
        "android_client_info": {
          "package_name": "com.example.push_local"
        }
      },
      "oauth_client": [
        {
          "client_id": "688498351605-ojfvao1o6hr5up8v1cre0ctg6k517k02.apps.googleusercontent.com",
          "client_type": 1,
          "android_info": {
            "package_name": "com.example.push_local",
            "certificate_hash": "fa9816d48e53f9c9261bfae3c6d86345be64b3c1"
          }
        },
        {
          "client_id": "688498351605-eg4q6d1b85eoup7mrnn7mk6o509tdpk4.apps.googleusercontent.com",
          "client_type": 3
        }
      ],
      "api_key": [
        {
          "current_key": "AIzaSyBmPLe8vb9EmaLiv44Ed7u3VoRt91mYico"
        }
      ],
      "services": {
        "appinvite_service": {
          "other_platform_oauth_client": [
            {
              "client_id": "688498351605-eg4q6d1b85eoup7mrnn7mk6o509tdpk4.apps.googleusercontent.com",
              "client_type": 3
            }
          ]
        }
      }
    }
  ],
  "configuration_version": "1"
}